﻿object={
	name="bush_dry_02_generator_1_0"
	clamp_to_water_level=no
	render_under_water=no
	generated_content=yes
	layer="semidynamic_medium"
	pdxmesh="tree_bush_05_mesh"
	count=145
	transform="1784.065796 0.000000 2341.221924 0.000000 0.677977 0.000000 0.735083 0.243222 0.243222 0.243222
1786.368286 0.000000 2367.785400 0.000000 0.909797 0.000000 0.415054 0.246501 0.246501 0.246501
1784.551025 0.000000 2348.718506 0.000000 0.999047 0.000000 0.043656 0.249580 0.249580 0.249580
1783.107910 0.000000 2361.060791 0.000000 0.241788 0.000000 0.970329 0.236256 0.236256 0.236256
1789.658813 0.000000 2351.175049 0.000000 0.638078 0.000000 0.769972 0.241800 0.241800 0.241800
1784.315552 0.000000 2352.868408 0.000000 0.135626 0.000000 0.990760 0.237016 0.237016 0.237016
1773.311035 0.000000 2350.209229 0.000000 0.914465 0.000000 0.404665 0.246074 0.246074 0.246074
1779.213989 0.000000 2362.116699 0.000000 0.789440 0.000000 0.613828 0.243194 0.243194 0.243194
1769.204712 0.000000 2352.420654 0.000000 0.237704 0.000000 0.971338 0.238372 0.238372 0.238372
1779.402588 0.000000 2369.826660 0.000000 0.980103 0.000000 0.198489 0.248229 0.248229 0.248229
1779.634155 0.000000 2358.587158 0.000000 0.131761 0.000000 0.991281 0.234062 0.234062 0.234062
1789.611938 0.000000 2354.619141 0.000000 0.983195 0.000000 0.182558 0.248316 0.248316 0.248316
1769.967651 0.000000 2345.677246 0.000000 0.823828 0.000000 0.566841 0.244527 0.244527 0.244527
1778.798096 0.000000 2352.540527 0.000000 0.423314 0.000000 0.905983 0.239457 0.239457 0.239457
1788.008179 0.000000 2358.136475 0.000000 0.771450 0.000000 0.636290 0.243220 0.243220 0.243220
1777.424561 0.000000 2354.275879 0.000000 0.259701 0.000000 0.965689 0.236570 0.236570 0.236570
1778.750244 0.000000 2356.412598 0.000000 0.884415 0.000000 0.466701 0.244697 0.244697 0.244697
1778.216187 0.000000 2360.404297 0.000000 0.768835 0.000000 0.639447 0.242422 0.242422 0.242422
1781.101318 0.000000 2361.184814 0.000000 0.921355 0.000000 0.388721 0.245577 0.245577 0.245577
1781.007935 0.000000 2357.009766 0.000000 0.924299 0.000000 0.381669 0.245869 0.245869 0.245869
1792.163086 0.000000 2350.605957 0.000000 0.986302 0.000000 0.164952 0.248578 0.248578 0.248578
1792.009766 0.000000 2358.052002 0.000000 0.934122 0.000000 0.356954 0.246651 0.246651 0.246651
1792.894775 0.000000 2346.159424 0.000000 0.957613 0.000000 0.288059 0.247392 0.247392 0.247392
5631.958008 0.000000 1094.102173 0.000000 0.918177 0.000000 0.396171 0.246441 0.246441 0.246441
5620.365234 0.000000 1112.469360 0.000000 0.677114 0.000000 0.735878 0.242748 0.242748 0.242748
5618.842773 0.000000 1091.073120 0.000000 0.963004 0.000000 0.269488 0.247624 0.247624 0.247624
5629.524414 0.000000 1090.272827 0.000000 0.996544 0.000000 0.083067 0.248993 0.248993 0.248993
5627.100586 0.000000 1083.295898 0.000000 0.637499 0.000000 0.770451 0.240530 0.240530 0.240530
5626.462402 0.000000 1090.273193 0.000000 0.875211 0.000000 0.483742 0.242957 0.242957 0.242957
5618.798340 0.000000 1109.884277 0.000000 0.728610 0.000000 0.684929 0.243101 0.243101 0.243101
5628.013184 0.000000 1088.067871 0.000000 0.972776 0.000000 0.231748 0.247051 0.247051 0.247051
5629.638184 0.000000 1092.926392 0.000000 0.260135 0.000000 0.965572 0.235677 0.235677 0.235677
5617.424316 0.000000 1111.619629 0.000000 0.364342 0.000000 0.931265 0.238000 0.238000 0.238000
5629.252441 0.000000 1083.629517 0.000000 0.948844 0.000000 0.315746 0.246732 0.246732 0.246732
5625.678223 0.000000 1088.324707 0.000000 0.826048 0.000000 0.563600 0.243274 0.243274 0.243274
5627.502441 0.000000 1085.200439 0.000000 0.964668 0.000000 0.263470 0.246722 0.246722 0.246722
5624.708984 0.000000 1093.646606 0.000000 0.178960 0.000000 0.983856 0.232117 0.232117 0.232117
5558.381836 0.000000 1159.015137 0.000000 0.368836 0.000000 0.929495 0.234884 0.234884 0.234884
5526.628418 0.000000 1159.714722 0.000000 0.674820 0.000000 0.737982 0.241996 0.241996 0.241996
5558.158691 0.000000 1161.747314 0.000000 0.167537 0.000000 0.985866 0.236607 0.236607 0.236607
5570.500488 0.000000 1149.431519 0.000000 0.657089 0.000000 0.753813 0.240887 0.240887 0.240887
5599.826172 0.000000 1137.809937 0.000000 0.351400 0.000000 0.936225 0.237068 0.237068 0.237068
5586.283691 0.000000 1130.820190 0.000000 0.981125 0.000000 0.193373 0.248172 0.248172 0.248172
5573.119141 0.000000 1146.121704 0.000000 0.733620 0.000000 0.679560 0.243425 0.243425 0.243425
5596.431641 0.000000 1137.195312 0.000000 0.641092 0.000000 0.767464 0.240717 0.240717 0.240717
5586.498535 0.000000 1133.505493 0.000000 0.836787 0.000000 0.547529 0.244485 0.244485 0.244485
5514.072266 0.000000 1242.343872 0.000000 0.424252 0.000000 0.905544 0.239502 0.239502 0.239502
5521.219727 0.000000 1197.630615 0.000000 0.142566 0.000000 0.989785 0.233336 0.233336 0.233336
5525.918945 0.000000 1197.679321 0.000000 0.477701 0.000000 0.878522 0.234567 0.234567 0.234567
5525.272461 0.000000 1194.541382 0.000000 0.167347 0.000000 0.985898 0.228814 0.228814 0.228814
5524.600586 0.000000 1197.193848 0.000000 0.999979 0.000000 0.006549 0.249906 0.249906 0.249906
5466.979980 0.000000 1284.489014 0.000000 0.616812 0.000000 0.787110 0.239679 0.239679 0.239679
5472.032227 0.000000 1279.594116 0.000000 0.711200 0.000000 0.702990 0.243553 0.243553 0.243553
5446.215332 0.000000 1291.593872 0.000000 0.596224 0.000000 0.802818 0.239500 0.239500 0.239500
5466.709961 0.000000 1279.696167 0.000000 0.816141 0.000000 0.577852 0.243809 0.243809 0.243809
5463.371094 0.000000 1285.670166 0.000000 0.213364 0.000000 0.976973 0.236165 0.236165 0.236165
5469.392090 0.000000 1287.329712 0.000000 0.555455 0.000000 0.831547 0.239092 0.239092 0.239092
5464.572266 0.000000 1282.120605 0.000000 0.843367 0.000000 0.537338 0.240972 0.240972 0.240972
5469.422852 0.000000 1281.208130 0.000000 0.539786 0.000000 0.841802 0.234418 0.234418 0.234418
5468.944336 0.000000 1278.523682 0.000000 0.074525 0.000000 0.997219 0.232677 0.232677 0.232677
5471.330566 0.000000 1275.077393 0.000000 0.669465 0.000000 0.742843 0.240855 0.240855 0.240855
5467.203125 0.000000 1281.973999 0.000000 0.861380 0.000000 0.507961 0.242351 0.242351 0.242351
5475.522949 0.000000 1287.302124 0.000000 0.864557 0.000000 0.502535 0.244364 0.244364 0.244364
5471.373535 0.000000 1286.089355 0.000000 0.965664 0.000000 0.259794 0.246892 0.246892 0.246892
5472.607910 0.000000 1281.746948 0.000000 0.255341 0.000000 0.966851 0.236605 0.236605 0.236605
5475.619629 0.000000 1284.563110 0.000000 0.937656 0.000000 0.347565 0.245990 0.245990 0.245990
5470.924805 0.000000 1281.961060 0.000000 0.523685 0.000000 0.851912 0.235363 0.235363 0.235363
5465.560059 0.000000 1285.829712 0.000000 0.544886 0.000000 0.838510 0.234947 0.234947 0.234947
5468.266602 0.000000 1280.023438 0.000000 0.209401 0.000000 0.977830 0.228824 0.228824 0.228824
5471.443848 0.000000 1280.767578 0.000000 0.601955 0.000000 0.798530 0.236724 0.236724 0.236724
5464.179688 0.000000 1283.264526 0.000000 0.883141 0.000000 0.469108 0.242229 0.242229 0.242229
5468.429199 0.000000 1281.999634 0.000000 0.864515 0.000000 0.502607 0.241799 0.241799 0.241799
5639.671387 0.000000 1041.575317 0.000000 0.714636 0.000000 0.699496 0.243738 0.243738 0.243738
5640.173828 0.000000 1038.985107 0.000000 0.983693 0.000000 0.179858 0.248211 0.248211 0.248211
5653.705078 0.000000 1156.555176 0.000000 0.060943 0.000000 0.998141 0.225971 0.225971 0.225971
5651.007324 0.000000 1147.765869 0.000000 0.898434 0.000000 0.439108 0.245758 0.245758 0.245758
5649.260254 0.000000 1156.144653 0.000000 0.842367 0.000000 0.538904 0.243713 0.243713 0.243713
5661.237305 0.000000 1163.209717 0.000000 0.988529 0.000000 0.151031 0.248505 0.248505 0.248505
5655.293457 0.000000 1153.252319 0.000000 0.680164 0.000000 0.733060 0.242733 0.242733 0.242733
5652.094727 0.000000 1145.088379 0.000000 0.431483 0.000000 0.902121 0.239611 0.239611 0.239611
5653.235840 0.000000 1149.548584 0.000000 0.999461 0.000000 0.032818 0.249681 0.249681 0.249681
5651.640625 0.000000 1154.999268 0.000000 0.703168 0.000000 0.711023 0.237412 0.237412 0.237412
5655.339844 0.000000 1162.094971 0.000000 0.359857 0.000000 0.933008 0.236676 0.236676 0.236676
5655.105957 0.000000 1150.924194 0.000000 0.526079 0.000000 0.850436 0.239846 0.239846 0.239846
5659.443848 0.000000 1161.952515 0.000000 0.451041 0.000000 0.892503 0.238574 0.238574 0.238574
5652.821777 0.000000 1160.798462 0.000000 0.234302 0.000000 0.972164 0.234635 0.234635 0.234635
5653.008301 0.000000 1158.792603 0.000000 0.408001 0.000000 0.912982 0.231725 0.231725 0.231725
5657.034668 0.000000 1161.634033 0.000000 0.882770 0.000000 0.469805 0.243651 0.243651 0.243651
5649.688477 0.000000 1157.914307 0.000000 0.948018 0.000000 0.318217 0.246422 0.246422 0.246422
5648.485352 0.000000 1154.799683 0.000000 0.322690 0.000000 0.946505 0.232129 0.232129 0.232129
5650.834473 0.000000 1156.276978 0.000000 0.657812 0.000000 0.753182 0.236426 0.236426 0.236426
5650.172363 0.000000 1154.834839 0.000000 0.586280 0.000000 0.810109 0.234970 0.234970 0.234970
5655.838867 0.000000 1160.711182 0.000000 0.942656 0.000000 0.333765 0.245338 0.245338 0.245338
5654.292480 0.000000 1161.108032 0.000000 0.892438 0.000000 0.451170 0.243587 0.243587 0.243587
5653.042969 0.000000 1157.591431 0.000000 0.906280 0.000000 0.422679 0.243054 0.243054 0.243054
5653.500000 0.000000 1159.871216 0.000000 0.553193 0.000000 0.833053 0.234360 0.234360 0.234360
5686.816895 0.000000 1187.422607 0.000000 0.925084 0.000000 0.379763 0.246001 0.246001 0.246001
5685.994141 0.000000 1207.458008 0.000000 0.989709 0.000000 0.143091 0.248665 0.248665 0.248665
5688.246582 0.000000 1189.028809 0.000000 0.334860 0.000000 0.942268 0.237263 0.237263 0.237263
4669.611816 0.000000 2411.103516 0.000000 0.993140 0.000000 0.116929 0.248866 0.248866 0.248866
4699.131348 0.000000 2388.464844 0.000000 0.930923 0.000000 0.365216 0.246582 0.246582 0.246582
4972.376953 0.000000 2418.611328 0.000000 0.921599 0.000000 0.388143 0.246380 0.246380 0.246380
4981.860840 0.000000 2420.410156 0.000000 0.031106 0.000000 0.999516 0.236066 0.236066 0.236066
5006.953125 0.000000 2482.799805 0.000000 0.835240 0.000000 0.549885 0.244222 0.244222 0.244222
5001.278320 0.000000 2478.911621 0.000000 0.505878 0.000000 0.862605 0.238831 0.238831 0.238831
5002.072266 0.000000 2485.000244 0.000000 0.836246 0.000000 0.548354 0.243769 0.243769 0.243769
4999.437500 0.000000 2483.871826 0.000000 0.338311 0.000000 0.941034 0.237722 0.237722 0.237722
4996.384766 0.000000 2479.600830 0.000000 0.995052 0.000000 0.099353 0.249031 0.249031 0.249031
5008.382324 0.000000 2484.644531 0.000000 0.089009 0.000000 0.996031 0.230950 0.230950 0.230950
5012.141113 0.000000 2482.760010 0.000000 0.993101 0.000000 0.117262 0.248775 0.248775 0.248775
4923.739258 0.000000 2489.819092 0.000000 0.766516 0.000000 0.642226 0.242274 0.242274 0.242274
4969.563477 0.000000 2511.803467 0.000000 0.341319 0.000000 0.939947 0.239089 0.239089 0.239089
4977.272949 0.000000 2518.937500 0.000000 0.939667 0.000000 0.342091 0.247036 0.247036 0.247036
4969.385742 0.000000 2518.230713 0.000000 0.326203 0.000000 0.945300 0.237903 0.237903 0.237903
4966.535645 0.000000 2514.820557 0.000000 0.735864 0.000000 0.677129 0.242549 0.242549 0.242549
4987.211426 0.000000 2514.930664 0.000000 0.823930 0.000000 0.566691 0.244867 0.244867 0.244867
4932.047852 0.000000 2493.662598 0.000000 0.994918 0.000000 0.100692 0.249031 0.249031 0.249031
4986.028320 0.000000 2498.411133 0.000000 0.868186 0.000000 0.496240 0.244782 0.244782 0.244782
4988.832520 0.000000 2517.634277 0.000000 0.645279 0.000000 0.763947 0.242023 0.242023 0.242023
4944.939453 0.000000 2501.241211 0.000000 0.704420 0.000000 0.709783 0.242562 0.242562 0.242562
4971.690430 0.000000 2488.876465 0.000000 0.649970 0.000000 0.759960 0.240975 0.240975 0.240975
4984.742188 0.000000 2515.206299 0.000000 0.797312 0.000000 0.603568 0.243307 0.243307 0.243307
4974.782227 0.000000 2527.376709 0.000000 0.999999 0.000000 0.001450 0.249985 0.249985 0.249985
4934.070312 0.000000 2492.352539 0.000000 0.993129 0.000000 0.117027 0.248715 0.248715 0.248715
4975.436035 0.000000 2520.033936 0.000000 0.598000 0.000000 0.801496 0.238539 0.238539 0.238539
4971.960938 0.000000 2507.414795 0.000000 0.169109 0.000000 0.985597 0.233650 0.233650 0.233650
5004.978516 0.000000 2486.048584 0.000000 0.272829 0.000000 0.962063 0.238285 0.238285 0.238285
4999.914551 0.000000 2487.149414 0.000000 0.768425 0.000000 0.639940 0.243737 0.243737 0.243737
5006.220703 0.000000 2502.393311 0.000000 0.100462 0.000000 0.994941 0.236236 0.236236 0.236236
5010.283691 0.000000 2486.445312 0.000000 0.213980 0.000000 0.976838 0.238413 0.238413 0.238413
4998.330566 0.000000 2497.409424 0.000000 0.959437 0.000000 0.281923 0.247592 0.247592 0.247592
5004.112305 0.000000 2500.219238 0.000000 0.515099 0.000000 0.857131 0.237147 0.237147 0.237147
5012.094727 0.000000 2500.713379 0.000000 0.951968 0.000000 0.306196 0.246640 0.246640 0.246640
5008.939453 0.000000 2501.241211 0.000000 0.990025 0.000000 0.140889 0.247988 0.247988 0.247988
4999.408691 0.000000 2503.149902 0.000000 0.939252 0.000000 0.343228 0.246611 0.246611 0.246611
5005.487793 0.000000 2495.329102 0.000000 0.445365 0.000000 0.895349 0.238577 0.238577 0.238577
4998.028809 0.000000 2508.242188 0.000000 0.883852 0.000000 0.467767 0.245154 0.245154 0.245154
5003.084961 0.000000 2495.691162 0.000000 0.176507 0.000000 0.984299 0.232781 0.232781 0.232781
5011.704102 0.000000 2499.076660 0.000000 0.820523 0.000000 0.571614 0.242917 0.242917 0.242917
5004.917480 0.000000 2503.509521 0.000000 0.712108 0.000000 0.702070 0.239216 0.239216 0.239216
5007.446289 0.000000 2501.330566 0.000000 0.193981 0.000000 0.981005 0.232099 0.232099 0.232099
5004.289551 0.000000 2498.759766 0.000000 0.272324 0.000000 0.962206 0.231249 0.231249 0.231249
5005.735352 0.000000 2500.980713 0.000000 0.338615 0.000000 0.940925 0.234704 0.234704 0.234704
5005.299805 0.000000 2496.779053 0.000000 0.940064 0.000000 0.340997 0.244603 0.244603 0.244603
5009.185059 0.000000 2499.818604 0.000000 0.237356 0.000000 0.971423 0.228814 0.228814 0.228814
"}
object={
	name="bush_dry_02_generator_1_1"
	clamp_to_water_level=no
	render_under_water=no
	generated_content=yes
	layer="semidynamic_medium"
	pdxmesh="tree_bush_06_mesh"
	count=151
	transform="1786.544556 0.000000 2356.282471 0.000000 0.622418 0.000000 -0.782685 0.259146 0.259146 0.259146
1776.205444 0.000000 2372.318115 0.000000 0.321401 0.000000 -0.946943 0.260245 0.260245 0.260245
1769.563477 0.000000 2342.350342 0.000000 0.994960 0.000000 -0.100272 0.250840 0.250840 0.250840
1775.722534 0.000000 2360.178955 0.000000 0.445823 0.000000 -0.895121 0.259861 0.259861 0.259861
1777.272949 0.000000 2349.484375 0.000000 0.704704 0.000000 -0.709501 0.256892 0.256892 0.256892
1779.455933 0.000000 2366.147705 0.000000 0.086378 0.000000 -0.996262 0.263572 0.263572 0.263572
1772.662354 0.000000 2366.439453 0.000000 0.837028 0.000000 -0.547160 0.254788 0.254788 0.254788
1772.760498 0.000000 2354.364502 0.000000 0.659981 0.000000 -0.751282 0.257958 0.257958 0.257958
1769.385620 0.000000 2348.777588 0.000000 0.923671 0.000000 -0.383186 0.253375 0.253375 0.253375
1780.365479 0.000000 2355.125732 0.000000 0.036892 0.000000 -0.999319 0.264743 0.264743 0.264743
1789.248291 0.000000 2361.861328 0.000000 0.312522 0.000000 -0.949910 0.261144 0.261144 0.261144
1790.419189 0.000000 2358.006592 0.000000 0.196120 0.000000 -0.980580 0.263072 0.263072 0.263072
1776.648071 0.000000 2356.335205 0.000000 0.897133 0.000000 -0.441760 0.254741 0.254741 0.254741
1781.013428 0.000000 2350.505615 0.000000 0.974593 0.000000 -0.223984 0.251953 0.251953 0.251953
1776.024048 0.000000 2368.394287 0.000000 0.798745 0.000000 -0.601669 0.255943 0.255943 0.255943
1775.868652 0.000000 2364.270264 0.000000 0.814449 0.000000 -0.580235 0.255428 0.255428 0.255428
1785.910522 0.000000 2363.810303 0.000000 0.539185 0.000000 -0.842188 0.259437 0.259437 0.259437
1783.060669 0.000000 2357.458984 0.000000 0.962462 0.000000 -0.271415 0.252685 0.252685 0.252685
1775.917358 0.000000 2352.641357 0.000000 0.973885 0.000000 -0.227042 0.252259 0.252259 0.252259
1786.305298 0.000000 2359.840820 0.000000 0.996906 0.000000 -0.078608 0.250818 0.250818 0.250818
1788.832764 0.000000 2348.181152 0.000000 0.484981 0.000000 -0.874525 0.260032 0.260032 0.260032
1781.861084 0.000000 2363.925781 0.000000 0.988496 0.000000 -0.151250 0.251587 0.251587 0.251587
1786.631714 0.000000 2350.995850 0.000000 0.994110 0.000000 -0.108376 0.251020 0.251020 0.251020
1777.315063 0.000000 2358.557617 0.000000 0.865864 0.000000 -0.500280 0.255363 0.255363 0.255363
1781.789307 0.000000 2359.303223 0.000000 0.941415 0.000000 -0.337250 0.253811 0.253811 0.253811
1783.867798 0.000000 2363.091064 0.000000 0.731203 0.000000 -0.682160 0.257497 0.257497 0.257497
1793.319092 0.000000 2354.747803 0.000000 0.969798 0.000000 -0.243911 0.252199 0.252199 0.252199
1795.505249 0.000000 2359.285645 0.000000 0.236923 0.000000 -0.971528 0.261220 0.261220 0.261220
5623.638184 0.000000 1088.946533 0.000000 0.880164 0.000000 -0.474669 0.254090 0.254090 0.254090
5629.292480 0.000000 1085.762085 0.000000 0.963010 0.000000 -0.269466 0.253159 0.253159 0.253159
5618.789551 0.000000 1085.290405 0.000000 0.976715 0.000000 -0.214541 0.251883 0.251883 0.251883
5626.511719 0.000000 1093.713135 0.000000 0.193971 0.000000 -0.981007 0.268802 0.268802 0.268802
5616.647949 0.000000 1113.678833 0.000000 0.437951 0.000000 -0.898999 0.262833 0.262833 0.262833
5626.028320 0.000000 1086.301758 0.000000 0.965028 0.000000 -0.262148 0.253468 0.253468 0.253468
5624.346680 0.000000 1095.404053 0.000000 0.930539 0.000000 -0.366192 0.254001 0.254001 0.254001
5623.044922 0.000000 1112.291504 0.000000 0.200783 0.000000 -0.979636 0.264821 0.264821 0.264821
5627.815430 0.000000 1091.922974 0.000000 0.824636 0.000000 -0.565664 0.258387 0.258387 0.258387
5625.814453 0.000000 1092.045532 0.000000 0.088773 0.000000 -0.996052 0.269053 0.269053 0.269053
5624.654297 0.000000 1090.416016 0.000000 0.393891 0.000000 -0.919157 0.264700 0.264700 0.264700
5627.262207 0.000000 1095.339111 0.000000 0.642057 0.000000 -0.766656 0.259515 0.259515 0.259515
5627.993164 0.000000 1089.746704 0.000000 0.182774 0.000000 -0.983155 0.269348 0.269348 0.269348
5627.523926 0.000000 1086.662476 0.000000 0.993184 0.000000 -0.116553 0.251527 0.251527 0.251527
5629.240234 0.000000 1087.234375 0.000000 0.767909 0.000000 -0.640559 0.258505 0.258505 0.258505
5629.294434 0.000000 1088.718506 0.000000 0.345146 0.000000 -0.938549 0.265361 0.265361 0.265361
5626.873047 0.000000 1088.952026 0.000000 0.686568 0.000000 -0.727066 0.261355 0.261355 0.261355
5560.550781 0.000000 1162.546631 0.000000 0.241763 0.000000 -0.970335 0.263289 0.263289 0.263289
5529.621582 0.000000 1177.562378 0.000000 0.072004 0.000000 -0.997404 0.263330 0.263330 0.263330
5557.519043 0.000000 1156.312866 0.000000 0.985034 0.000000 -0.172359 0.251768 0.251768 0.251768
5596.793945 0.000000 1132.529297 0.000000 0.996683 0.000000 -0.081377 0.251037 0.251037 0.251037
5576.407715 0.000000 1137.499878 0.000000 0.895210 0.000000 -0.445644 0.254022 0.254022 0.254022
5602.900879 0.000000 1129.752197 0.000000 0.806859 0.000000 -0.590744 0.255226 0.255226 0.255226
5582.873047 0.000000 1137.734619 0.000000 0.765802 0.000000 -0.643077 0.255995 0.255995 0.255995
5579.786133 0.000000 1134.740479 0.000000 0.999988 0.000000 -0.004886 0.250046 0.250046 0.250046
5583.831543 0.000000 1133.859375 0.000000 0.994060 0.000000 -0.108835 0.250956 0.250956 0.250956
5603.104004 0.000000 1138.229614 0.000000 0.209655 0.000000 -0.977775 0.262474 0.262474 0.262474
5597.958984 0.000000 1139.887817 0.000000 0.507791 0.000000 -0.861480 0.260400 0.260400 0.260400
5572.756836 0.000000 1148.480713 0.000000 0.949758 0.000000 -0.312984 0.253974 0.253974 0.253974
5525.668945 0.000000 1195.960815 0.000000 0.197491 0.000000 -0.980305 0.270723 0.270723 0.270723
5532.431641 0.000000 1193.679688 0.000000 0.969113 0.000000 -0.246615 0.253064 0.253064 0.253064
5523.894531 0.000000 1193.943604 0.000000 0.592151 0.000000 -0.805827 0.260878 0.260878 0.260878
5533.055664 0.000000 1192.185669 0.000000 0.760634 0.000000 -0.649181 0.258687 0.258687 0.258687
5427.759277 0.000000 1274.021118 0.000000 0.450863 0.000000 -0.892593 0.260258 0.260258 0.260258
5478.230957 0.000000 1281.185303 0.000000 0.175661 0.000000 -0.984451 0.261617 0.261617 0.261617
5478.893555 0.000000 1262.103638 0.000000 0.991568 0.000000 -0.129588 0.251257 0.251257 0.251257
5473.210449 0.000000 1287.529541 0.000000 0.161457 0.000000 -0.986880 0.265078 0.265078 0.265078
5475.765137 0.000000 1268.503540 0.000000 0.936752 0.000000 -0.349992 0.253348 0.253348 0.253348
5502.624512 0.000000 1251.476440 0.000000 0.335798 0.000000 -0.941934 0.260503 0.260503 0.260503
5440.156738 0.000000 1297.556396 0.000000 0.942485 0.000000 -0.334249 0.253052 0.253052 0.253052
5474.735840 0.000000 1282.309326 0.000000 0.983729 0.000000 -0.179657 0.251573 0.251573 0.251573
5473.099609 0.000000 1276.605957 0.000000 0.937578 0.000000 -0.347776 0.253990 0.253990 0.253990
5473.910645 0.000000 1284.979126 0.000000 0.759573 0.000000 -0.650423 0.258000 0.258000 0.258000
5471.005371 0.000000 1277.560913 0.000000 0.773042 0.000000 -0.634355 0.257763 0.257763 0.257763
5464.887695 0.000000 1284.256470 0.000000 0.753115 0.000000 -0.657889 0.260867 0.260867 0.260867
5473.987305 0.000000 1280.269897 0.000000 0.577222 0.000000 -0.816587 0.259750 0.259750 0.259750
5465.935547 0.000000 1283.058838 0.000000 0.999329 0.000000 -0.036638 0.250583 0.250583 0.250583
5465.886230 0.000000 1284.728638 0.000000 0.202332 0.000000 -0.979317 0.270691 0.270691 0.270691
5437.512207 0.000000 1299.166748 0.000000 0.748365 0.000000 -0.663288 0.256721 0.256721 0.256721
5650.127930 0.000000 1142.963501 0.000000 0.197907 0.000000 -0.980221 0.261942 0.261942 0.261942
5663.758301 0.000000 1159.847168 0.000000 0.945966 0.000000 -0.324267 0.252752 0.252752 0.252752
5647.272949 0.000000 1151.606079 0.000000 0.970262 0.000000 -0.242056 0.252281 0.252281 0.252281
5655.890625 0.000000 1148.745239 0.000000 0.503354 0.000000 -0.864080 0.260516 0.260516 0.260516
5658.074219 0.000000 1160.203979 0.000000 0.871421 0.000000 -0.490537 0.255312 0.255312 0.255312
5668.276367 0.000000 1162.934204 0.000000 0.992825 0.000000 -0.119573 0.250999 0.250999 0.250999
5658.364746 0.000000 1155.248779 0.000000 0.975794 0.000000 -0.218693 0.251913 0.251913 0.251913
5650.817383 0.000000 1160.131348 0.000000 0.333934 0.000000 -0.942596 0.260981 0.260981 0.260981
5651.771973 0.000000 1152.312988 0.000000 0.991876 0.000000 -0.127207 0.251688 0.251688 0.251688
5654.628418 0.000000 1159.714722 0.000000 0.981798 0.000000 -0.189927 0.252779 0.252779 0.252779
5657.681152 0.000000 1163.464966 0.000000 0.948882 0.000000 -0.315632 0.253808 0.253808 0.253808
5649.436523 0.000000 1153.556519 0.000000 0.870052 0.000000 -0.492960 0.256773 0.256773 0.256773
5650.128418 0.000000 1150.449097 0.000000 0.896197 0.000000 -0.443656 0.254375 0.254375 0.254375
5651.362793 0.000000 1157.675293 0.000000 0.253696 0.000000 -0.967284 0.270918 0.270918 0.270918
5653.422363 0.000000 1154.042358 0.000000 0.960245 0.000000 -0.279158 0.253938 0.253938 0.253938
5654.981445 0.000000 1157.912109 0.000000 0.083220 0.000000 -0.996531 0.268800 0.268800 0.268800
5656.422363 0.000000 1159.387695 0.000000 0.965656 0.000000 -0.259822 0.253051 0.253051 0.253051
5650.930176 0.000000 1153.550171 0.000000 0.990588 0.000000 -0.136880 0.251817 0.251817 0.251817
5652.314941 0.000000 1156.593140 0.000000 0.910266 0.000000 -0.414023 0.256794 0.256794 0.256794
5652.958984 0.000000 1155.357300 0.000000 0.257705 0.000000 -0.966224 0.268235 0.268235 0.268235
5682.842773 0.000000 1204.041870 0.000000 0.591227 0.000000 -0.806505 0.258052 0.258052 0.258052
5685.428223 0.000000 1204.013062 0.000000 0.997986 0.000000 -0.063438 0.250616 0.250616 0.250616
4669.658691 0.000000 2407.659424 0.000000 0.742240 0.000000 -0.670134 0.256577 0.256577 0.256577
4705.412109 0.000000 2387.300781 0.000000 0.795818 0.000000 -0.605536 0.256272 0.256272 0.256272
4814.953125 0.000000 2426.315430 0.000000 0.998058 0.000000 -0.062293 0.250601 0.250601 0.250601
4816.382324 0.000000 2428.160156 0.000000 0.152710 0.000000 -0.988271 0.263934 0.263934 0.263934
5001.641113 0.000000 2482.015869 0.000000 0.600444 0.000000 -0.799667 0.258908 0.258908 0.258908
5010.579102 0.000000 2484.017090 0.000000 0.889057 0.000000 -0.457797 0.255416 0.255416 0.255416
5013.934570 0.000000 2483.640137 0.000000 0.587201 0.000000 -0.809441 0.259831 0.259831 0.259831
4954.122559 0.000000 2496.120850 0.000000 0.317478 0.000000 -0.948266 0.260474 0.260474 0.260474
4972.760254 0.000000 2523.817627 0.000000 0.255565 0.000000 -0.966792 0.261344 0.261344 0.261344
4989.292480 0.000000 2497.871582 0.000000 0.924322 0.000000 -0.381614 0.254289 0.254289 0.254289
4973.434082 0.000000 2515.041748 0.000000 0.984480 0.000000 -0.175497 0.251602 0.251602 0.251602
4942.220703 0.000000 2502.393311 0.000000 0.971618 0.000000 -0.236555 0.252258 0.252258 0.252258
4984.315430 0.000000 2522.321533 0.000000 0.937082 0.000000 -0.349109 0.253483 0.253483 0.253483
4933.464844 0.000000 2490.094482 0.000000 0.636979 0.000000 -0.770881 0.258131 0.258131 0.258131
4970.673340 0.000000 2485.456299 0.000000 0.222832 0.000000 -0.974857 0.262224 0.262224 0.262224
4980.003906 0.000000 2488.640137 0.000000 0.244391 0.000000 -0.969677 0.262271 0.262271 0.262271
4975.917480 0.000000 2522.094482 0.000000 0.977009 0.000000 -0.213196 0.252313 0.252313 0.252313
4957.020508 0.000000 2498.142822 0.000000 0.143075 0.000000 -0.989712 0.263406 0.263406 0.263406
4970.288574 0.000000 2508.460205 0.000000 0.993669 0.000000 -0.112349 0.251265 0.251265 0.251265
4969.967773 0.000000 2515.130371 0.000000 0.576245 0.000000 -0.817277 0.264271 0.264271 0.264271
4975.537109 0.000000 2512.440918 0.000000 0.939575 0.000000 -0.342343 0.253282 0.253282 0.253282
4930.356934 0.000000 2490.210693 0.000000 0.919288 0.000000 -0.393587 0.253800 0.253800 0.253800
4966.469727 0.000000 2511.906494 0.000000 0.667358 0.000000 -0.744737 0.258259 0.258259 0.258259
4972.051758 0.000000 2517.406738 0.000000 0.926391 0.000000 -0.376563 0.253687 0.253687 0.253687
4942.686523 0.000000 2499.904053 0.000000 0.400578 0.000000 -0.916263 0.261281 0.261281 0.261281
4990.582031 0.000000 2500.179688 0.000000 0.866755 0.000000 -0.498734 0.256273 0.256273 0.256273
4975.339355 0.000000 2485.558594 0.000000 0.952876 0.000000 -0.303360 0.253011 0.253011 0.253011
4967.465820 0.000000 2495.198242 0.000000 0.979508 0.000000 -0.201407 0.252126 0.252126 0.252126
4968.179688 0.000000 2513.497070 0.000000 0.080055 0.000000 -0.996790 0.270422 0.270422 0.270422
4968.459473 0.000000 2514.832031 0.000000 0.824896 0.000000 -0.565284 0.258962 0.258962 0.258962
5010.127930 0.000000 2498.588623 0.000000 0.026890 0.000000 -0.999638 0.267971 0.267971 0.267971
5001.400879 0.000000 2501.431641 0.000000 0.079240 0.000000 -0.996856 0.265965 0.265965 0.265965
5003.929688 0.000000 2497.318359 0.000000 0.339837 0.000000 -0.940484 0.267762 0.267762 0.267762
4992.514160 0.000000 2501.393311 0.000000 0.560592 0.000000 -0.828092 0.258647 0.258647 0.258647
4995.837402 0.000000 2508.874512 0.000000 0.222710 0.000000 -0.974885 0.261679 0.261679 0.261679
4998.424805 0.000000 2505.672607 0.000000 0.987898 0.000000 -0.155106 0.251594 0.251594 0.251594
5007.197266 0.000000 2496.945312 0.000000 0.996774 0.000000 -0.080256 0.250960 0.250960 0.250960
5001.084961 0.000000 2496.130371 0.000000 0.653611 0.000000 -0.756831 0.258224 0.258224 0.258224
5000.614258 0.000000 2498.841309 0.000000 0.701291 0.000000 -0.712875 0.257653 0.257653 0.257653
5007.671387 0.000000 2486.841553 0.000000 0.778017 0.000000 -0.628243 0.256720 0.256720 0.256720
5006.686523 0.000000 2499.904053 0.000000 0.689549 0.000000 -0.724239 0.262890 0.262890 0.262890
5010.498535 0.000000 2489.130615 0.000000 0.195353 0.000000 -0.980733 0.264452 0.264452 0.264452
5012.805176 0.000000 2485.380127 0.000000 0.303653 0.000000 -0.952783 0.262763 0.262763 0.262763
4998.475098 0.000000 2499.903076 0.000000 0.978662 0.000000 -0.205477 0.252125 0.252125 0.252125
5005.704590 0.000000 2498.139160 0.000000 0.957574 0.000000 -0.288189 0.254233 0.254233 0.254233
5008.278320 0.000000 2498.868164 0.000000 0.346239 0.000000 -0.938146 0.269373 0.269373 0.269373
5008.728516 0.000000 2485.319092 0.000000 0.747442 0.000000 -0.664327 0.259342 0.259342 0.259342
5004.617676 0.000000 2501.959717 0.000000 0.783594 0.000000 -0.621273 0.258368 0.258368 0.258368
5002.378418 0.000000 2497.173828 0.000000 0.875927 0.000000 -0.482444 0.257306 0.257306 0.257306
5007.028809 0.000000 2498.418457 0.000000 0.996204 0.000000 -0.087052 0.251387 0.251387 0.251387
5005.344238 0.000000 2499.602295 0.000000 0.982707 0.000000 -0.185165 0.252697 0.252697 0.252697
5004.215332 0.000000 2496.168945 0.000000 0.391459 0.000000 -0.920196 0.268124 0.268124 0.268124
"}
